{
  "fmtversion": "1.0",
  "display_name": "Channel Power (Dertarr edition)",
  "source": "dertarr",
  "type": "spell",
  "lngcode": "en",
  "conservative": {
    "name": "Channel Power",
    "tags": "Basic, Rally",
    "difficulty": "[W8p]",
    "check": "Channelling (WP)",
    "requirements": "Your current power is less than twice your Willpower. If you are engaged with an enemy, add [W6k] to your dice pool",
    "recharge": "0",
    "effect": {
      "special": "Special: you may quickcast in the same round after resolving this action. If you do so, add [W8p] to the dice pool for the quickcast",
      "text": [
        "[w1] Gain 2 power",
        "[w1] [w1] Gain 3 power",
        "[w1] [w1] [w1] Gain 4 power",
        "[w2] Gain 1 power",
        "[w2] [w2] Gain 1 power",
        "[w4] [w4] Suffer 1 stress. If, after resolving this action, you have more power than twice your Willpower, suffer 1 additional stress",
        "[w5] At the end of your turn, lose all power in excess of your Willpower and suffer 1 stress per power lost this way"
      ]
    },
    "options": [
      "effect.space=normal"
    ]
  },
  "reckless": {
    "name": "Channel Power",
    "tags": "Basic, Rally",
    "difficulty": "[W8p]",
    "check": "Channelling (WP)",
    "requirements": "Your current power is less than twice your Willpower. If you are engaged with an enemy, add [W6k] to your dice pool",
    "recharge": "0",
    "effect": {
      "special": "Special: you may quickcast in the same round after resolving this action. If you do so, add [W8p] to the dice pool for the quickcast",
      "text": [
        "[w1] Gain 2 power",
        "[w1] [w1] Gain 4 power",
        "[w1] [w1] [w1] Gain 6 power",
        "[w2] Gain 1 power",
        "[w2] [w2] Gain 2 power",
        "[w4] [w4] Suffer 1 wound. If, after resolving this action, you have more power than twice your Willpower, suffer 1 additional stress",
        "[w5] At the end of your turn, lose all power in excess of your Willpower and suffer 1 stress per power lost this way"
      ]
    },
    "options": [
      "effect.space=normal"
    ]
  }
}
