{
  "fmtversion": "1.0",
  "display_name": "Counterspell",
  "source": "WHF01",
  "lngcode": "ru",
  "type": "spell_defence",
  "conservative": {
    "name": "Counterspell",
    "name_aux": "Противозаклятие",
    "tags": "Мелкая Магия, Базовый, Реакция, Ранг 0",
    "check": "Не требуется",
    "requirements": "Воля 3+, достаточное количество мощи.",
    "recharge": "2",
    "effect": {
      "special": "Особое: едва ты был объявлен целью [i][b]Сверхъестественного[/b][/i] действия или действия типа [i][b]Заклинание[/b][/i], можешь поместить 2 жетона заряда на эту карту и добавить [W6k] к пулу костей для проверки того приёма.\nЕсли ты имеешь компетенцию в [b]Управлении Потоком[/b], можешь добавить ещё один [W6k] к тому пулу.\n\nЗатрать 1 мощь за каждый [W6k], что ты добавляешь к пулу таким образом.",
      "text": []
    },
    "options": [
      "effect.size=1.15",
      "effect.space=normal"
    ]
  },
  "reckless": true
}