{
  "fmtversion": "1.0",
  "display_name": "Healing Energy",
  "source": "WHF06",
  "lngcode": "ru",
  "type": "spell",
  "conservative": {
    "name": "Healing Energy",
    "name_aux": "Лечащая Энергия",
    "tags": "Ранг 1, Орден Света",
    "difficulty": "[W8p]",
    "check": "Колдовство (ИНТ) пр. Характера Ранений Цели",
    "requirements": "4 мощи. Ты в сцепке с целью.\nЕсли в сцепке с тобой есть противник, добавь [W8p] к проверке.",
    "recharge": "4",
    "effect": {
      "text": [
        "[w1] Свет наполняет твою цель, и она восстанавливает [ww].",
        "[w2] Цель восстанавливает [wf] или [ws].",
        "[w2] [w2] Ты восстанавливаешь [wf] или [ws].",
        "[w4] [w4] Цель претерпевает [wf].",
        "[w5] Претерпи [wf]."
      ]
    },
    "options": [
      "name_aux.size=1.10",
      "requirements.size=1.15",
      "effect.size=1.10",
      "effect.space=normal"
    ]
  },
  "reckless": {
    "name": "Healing Energy",
    "name_aux": "Лечащая Энергия",
    "tags": "Ранг 1, Орден Света",
    "difficulty": "[W8p]",
    "check": "Колдовство (ИНТ) пр. Характера Ранений Цели",
    "requirements": "4 мощи. Ты в сцепке с целью.\nЕсли в сцепке с тобой есть противник, добавь [W8p] к проверке.",
    "recharge": "4",
    "effect": {
      "text": [
        "[w1] Свет наполняет твою цель, и она восстанавливает [ww].",
        "[w1] [w1] [w1] Как и выше, но цель восстанавливает [ww][ww].",
        "[w2] [w2] Ты восстанавливаешь [wf] или [ws].",
        "[w4] Цель претерпевает [wf].",
        "[w5] Претерпи [wf]."
      ]
    },
    "options": [
      "name_aux.size=1.10",
      "requirements.size=1.15",
      "effect.size=1.10",
      "effect.space=normal"
    ]
  }
}