{
  "fmtversion": "1.0",
  "display_name": "Improved Parry",
  "source": "WHF01",
  "lngcode": "ru",
  "type": "defence",
  "conservative": {
    "name": "Improved Parry",
    "name_aux": "Сильное Парирование",
    "tags": "Продвинутый, Активная Защита",
    "check": "нет",
    "requirements": "Сила 4+, вооружён рукопашным оружием, имеешь компетенцию в Ближнем Бое.",
    "recharge": "2",
    "effect": {
      "special": "Особое: если атакующий промахивается по тебе, можешь снять один жетон заряда (или добавить) с любой своей карты [i]Рукопашная Атака[/i].\n[i]Сильное Парирование[/i] заменяет базовый приём [i]Парирование[/i] и во всех отношениях для любых эффектов считается приёмом [i]Парирования[/i].",
      "effect": "Эффект: едва ты был объявлен целью рукопашной атаки, положи 2 жетона заряда на эту карту и добавь [W8p] в пул проверки той атаки.",
      "text": []
    },
    "options": [
      "name_aux.size=1.10",
      "effect.size=1.20",
      "effect.space=normal"
    ]
  },
  "reckless": {
    "name": "Imroved Parry",
    "name_aux": "Сильное Парирование",
    "tags": "Продвинутый, Активная Защита",
    "check": "нет",
    "requirements": "Сила 4+, вооружён рукопашным оружием, имеешь компетенцию в Ближнем Бое.",
    "recharge": "2",
    "effect": {
      "special": "Особое: если атакующий промахивается по тебе, можешь снять один жетон заряда (или добавить) с любой своей карты [i]Рукопашная Атака[/i].\n[i]Сильное Парирование[/i] заменяет базовый приём [i]Парирование[/i] и во всех отношениях для любых эффектов считается приёмом [i]Парирования[/i].",
      "effect": "Эффект: едва ты был объявлен целью рукопашной атаки, положи 2 жетона заряда на эту карту и добавь [W8p] в пул проверки той атаки.",
      "text": []
    },
    "options": [
      "name_aux.size=1.10",
      "effect.size=1.20",
      "effect.space=normal"
    ]
  }
}