{
  "fmtversion": "1.0",
  "display_name": "Magic Dart",
  "source": "WHF01",
  "lngcode": "ru",
  "type": "spell",
  "conservative": {
    "name": "Magic Dart",
    "name_aux": "Волшебный Дротик",
    "tags": "Мелкая Магия, Базовый, Ранг 0",
    "difficulty": "[W6k]",
    "check": "Колдовство (ИНТ)",
    "requirements": "3 мощи. Цель в пределах средней дистанции. Если в сцепке с тобой есть противник, добавь [W8p] к проверке.",
    "recharge": "0",
    "effect": {
      "text": [
        "[w1] Светящийся магический снаряд, форма которого связана с твоим Орденом, пролетает по воздуху и впивается в цель, нанося [b]3 + ИНТ[/b] единиц урона.",
        "[w2] [w2] Игнорируй показатель [b]Поглощения[/b] противника для этой атаки.",
        "[w3] Снаряд наносит урон +1 и Критическое Ранение.",
        "[w4] [w4] Претерпи [wf] и [ws]."
      ]
    },
    "options": [
      "name_aux.size=1.10",
      "tags.size=1.05",
      "requirements.size=1.10",
      "effect.size=1.20",
      "effect.space=normal"
    ]
  },
  "reckless": true
}