{
  "fmtversion": "1.0",
  "display_name": "Radiant Weapon",
  "source": "WHF06",
  "lngcode": "ru",
  "type": "spell",
  "conservative": {
    "name": "Radiant Weapon",
    "name_aux": "Лучащееся Оружие",
    "tags": "Ранг 1, Орден Света, Длительное",
    "difficulty": "[W8p]",
    "check": "Колдовство (ИНТ)",
    "requirements": "5 мощи. Ты должен прикоснуться к оружию, которое выбрал в качестве цели, в процессе сотворения заклинания.",
    "recharge": "6",
    "effect": {
      "effect": "Эффект: ты наделяешь оружие лучащейся энергией Хиш. Пока это заклинание заряжается, оружие источает чистый белый свет. Оно считается оружием превосходного качества, добавляя [W6w] ко всем атакам. Против демонов это оружие даёт Урон +2 и свойство Проникающее 2.",
      "text": [
        "[w1] Ты сотворяешь заклинание.",
        "[w1] [w1] [w1] Как и выше, и добавь 2 жетона заряда на эту карту.",
        "[w2] Восстанови [wf] или [ws].",
        "[w2] [w2] Владелец оружия восстанавливает [wf] или [ws].",
        "[w3] Пока эта карта заряжается, рейтинги [b]Страха[/b] и [b]Ужаса[/b] демонов снижаются на 1 для тех, кто может видеть это оружие.",
        "[w4] [w4] Претерпи [wf]."
      ]
    },
    "options": [
      "requirements.size=1.05",
      "effect.space=normal"
    ]
  },
  "reckless": {
    "name": "Radiant Weapon",
    "name_aux": "Лучащееся Оружие",
    "tags": "Ранг 1, Орден Света, Длительное",
    "difficulty": "[W8p]",
    "check": "Колдовство (ИНТ)",
    "requirements": "5 мощи. Ты должен прикоснуться к оружию, которое выбрал в качестве цели, в процессе сотворения заклинания.",
    "recharge": "6",
    "effect": {
      "effect": "Эффект: ты наделяешь оружие лучащейся энергией Хиш. Пока это заклинание заряжается, оружие источает чистый белый свет. Оно считается оружием превосходного качества, добавляя [W6w] ко всем атакам. Против демонов это оружие даёт Урон +2 и свойство Проникающее 2.",
      "text": [
        "[w1] Ты сотворяешь заклинание.",
        "[w2] Восстанови [wf] или [ws].",
        "[w2] [w2] Любой демон, который видит твой свет в момент сотворения заклинания, претерпевает [ws].",
        "[w3] Пока эта карта заряжается, рейтинг Критического Урона этого оружия снижается на 1 для атак против демонов.",
        "[w4] [w4] Претерпи [wf].",
        "[w4] [w4] Владелец оружия претерпевает [wf]."
      ]
    },
    "options": [
      "requirements.size=1.05",
      "effect.space=normal"
    ]
  }
}