{
  "fmtversion": "1.0",
  "display_name": "Sniper Shot",
  "source": "WHF01",
  "lngcode": "ru",
  "type": "ranged",
  "conservative": {
    "name": "Sniper Shot",
    "name_aux": "Снайперский Выстрел",
    "difficulty": "[W6k]",
    "check": "Баллистика (ЛОВ) пр. Защиты Цели",
    "requirements": "Дальнобойное оружие.\nВ средней дистанции от цели.\nЗатрать манёвр для прицеливания.",
    "recharge": "2",
    "effect": {
      "text": [
        "[w1] Ты наносишь базовый урон, критическое ранение.",
        "[w1] [w1] Урон +1, критическое ранение.",
        "[w2] Урон +1.",
        "[w3] Атака наносит дополнительный урон, равный [b]РУ[/b] оружия.",
        "[w4] [w4] Претерпи [wf] и [ws]."
      ]
    },
    "options": [
      "requirements.size=1.20",
      "effect.size=1.20",
      "effect.space=normal"
    ]
  },
  "reckless": {
    "name": "Sniper Shot",
    "name_aux": "Снайперский Выстрел",
    "difficulty": "[W6k][W6k]",
    "check": "Баллистика (ЛОВ) пр. Защиты Цели",
    "requirements": "Дальнобойное оружие.\nВ средней дистанции от цели.\nЗатрать манёвр для прицеливания.",
    "recharge": "3",
    "effect": {
      "text": [
        "[w1] Ты наносишь базовый урон +1.",
        "[w1] [w1] [w1] Урон +2, критическое ранение.",
        "[w2] Урон +1.",
        "[w2] [w2] Игнорируй [b]Поглощение[/b] доспехов цели.",
        "[w4] Претерпи [wf] и [ws]."
      ]
    },
    "options": [
      "requirements.size=1.20",
      "effect.size=1.20",
      "effect.space=normal"
    ]
  }
}
